<svg version="1.1" id="Слой_1" xmlns="http://www.w3.org/2000/svg" xmlns:xlink="http://www.w3.org/1999/xlink" x="0px" y="0px" viewBox="0 0 293 1" style="enable-background:new 0 0 293 1;" xml:space="preserve">
     <style type="text/css">
         .st0{fill:rgba(165,165,165,0.35);}
         .st1{fill:#F2F2F2;}
    </style>
    <rect x="146" class="st0" width="1" height="1"/>
    <rect class="st1" width="146" height="1"/>
    <rect x="147" class="st1" width="146" height="1"/>
</svg>
